C:\Users\atole\javaProjects\RPG-tool\rpgtoolgui\src\main\java\com\atolsoft\rpgtool\data\names\SecondaryStatsName.java
C:\Users\atole\javaProjects\RPG-tool\rpgtoolgui\src\main\java\com\atolsoft\rpgtool\data\Skills.java
C:\Users\atole\javaProjects\RPG-tool\rpgtoolgui\src\main\java\com\atolsoft\rpgtool\App.java
C:\Users\atole\javaProjects\RPG-tool\rpgtoolgui\src\main\java\com\atolsoft\rpgtool\data\CharacterDatabase.java
C:\Users\atole\javaProjects\RPG-tool\rpgtoolgui\src\main\java\com\atolsoft\rpgtool\data\SecondaryStats.java
C:\Users\atole\javaProjects\RPG-tool\rpgtoolgui\src\main\java\com\atolsoft\rpgtool\data\FalloutCharacter.java
C:\Users\atole\javaProjects\RPG-tool\rpgtoolgui\src\main\java\com\atolsoft\rpgtool\data\Human.java
C:\Users\atole\javaProjects\RPG-tool\rpgtoolgui\src\main\java\com\atolsoft\rpgtool\data\Special.java
C:\Users\atole\javaProjects\RPG-tool\rpgtoolgui\src\main\java\com\atolsoft\rpgtool\data\names\XPLevels.java
C:\Users\atole\javaProjects\RPG-tool\rpgtoolgui\src\main\java\com\atolsoft\rpgtool\data\Ghul.java
C:\Users\atole\javaProjects\RPG-tool\rpgtoolgui\src\main\java\com\atolsoft\rpgtool\data\names\SkillsName.java
C:\Users\atole\javaProjects\RPG-tool\rpgtoolgui\src\main\java\com\atolsoft\rpgtool\data\names\SpecialNames.java
